{
  "collapse-filter": true,
  "search": "",
  "showTags": false,
  "showAttachments": false,
  "hideUnresolved": false,
  "showOrphans": true,
  "collapse-color-groups": true,
  "colorGroups": [],
  "collapse-display": true,
  "showArrow": false,
  "textFadeMultiplier": 0.2,
  "nodeSizeMultiplier": 1.09101123595506,
  "lineSizeMultiplier": 2.55,
  "collapse-forces": false,
  "centerStrength": 0.337078651685393,
  "repelStrength": 9.8876404494382,
  "linkStrength": 1,
  "linkDistance": 195,
  "scale": 0.8854989543150271,
  "close": false
}